STAT 267 - Term Project
…
# Your R code goes here
memory <- read_csv("/System/Volumes/Data/University of Evansville/FALL 2019/STAT 267/Term_project/memory.csv")

## Parsed with column specification:
## cols(
##   subject = col_double(),
##   response = col_double(),
##   task = col_character(),
##   report = col_character()
## )

print(memory)

## # A tibble: 80 x 4
##    subject response task   report
##      <dbl>    <dbl> <chr>  <chr> 
##  1       1    11.6  visual visual
##  2       1    13.1  visual verbal
##  3       1    16.0  verbal visual
##  4       1    11.5  verbal verbal
##  5       2    22.7  visual visual
##  6       2     6.27 visual verbal
##  7       2    13.2  verbal visual
##  8       2    23.9  verbal verbal
##  9       3    21.0  visual visual
## 10       3     7.77 visual verbal
## #  with 70 more rows
…
